<svg width="18" height="13" viewBox="0 0 18 13" fill="none" xmlns="http://www.w3.org/2000/svg">
<path d="M6.40625 11.9766C6.71875 12.2891 7.25 12.2891 7.5625 11.9766L16.75 2.78906C17.0625 2.47656 17.0625 1.94531 16.75 1.63281L15.625 0.507812C15.3125 0.195312 14.8125 0.195312 14.5 0.507812L7 8.00781L3.46875 4.50781C3.15625 4.19531 2.65625 4.19531 2.34375 4.50781L1.21875 5.63281C0.90625 5.94531 0.90625 6.47656 1.21875 6.78906L6.40625 11.9766Z" fill="#29D3B6"/>
</svg>
