<svg width="24" height="13" viewBox="0 0 24 13" fill="none" xmlns="http://www.w3.org/2000/svg">
<path d="M23.6274 12.3933L12.3137 12.2518L1 12.3933L12.3137 1.07956L23.6274 12.3933Z" fill="white"/>
<path d="M1 12.3933L12.3137 1.07956L23.6274 12.3933" stroke="#E4F2F0"/>
</svg>
